…
``` r
# train and test side by side + id -- list columns
cv_df =
  crossv_mc(nonlin_df, 100)
```

What is happening here …

``` r
# R default stores as resample
cv_df %>% pull(train) %>% .[[1]] %>% as_tibble()
```

    ## # A tibble: 79 x 3
    ##       id      x       y
    ##    <int>  <dbl>   <dbl>
    ##  1     1 0.0698  0.660 
    ##  2     3 0.313   1.52  
    ##  3     4 0.942  -2.89  
    ##  4     5 0.707  -0.673 
    ##  5     6 0.453   0.563 
    ##  6     7 0.0402  0.0573
    ##  7     8 0.274   1.09  
    ##  8     9 0.331   0.952 
    ##  9    10 0.757  -1.11  
    ## 10    11 0.869  -2.26  
    ## # … with 69 more rows

``` r
cv_df %>% pull(test) %>% .[[1]] %>% as_tibble()
```

    ## # A tibble: 21 x 3
    ##       id      x      y
    ##    <int>  <dbl>  <dbl>
    ##  1     2 0.586   0.852
    ##  2    15 0.789  -1.69 
    ##  3    17 0.0193  0.277
    ##  4    19 0.123   0.646
    ##  5    24 0.146   0.733
    ##  6    34 0.603   0.472
    ##  7    37 0.214   0.647
    ##  8    45 0.263   0.906
    ##  9    55 0.927  -3.41 
    ## 10    61 0.871  -1.94 
    ## # … with 11 more rows
…
